
############################################
#### TSCONFIG EXT:hive_ovr_sys_language ####
############################################
<INCLUDE_TYPOSCRIPT: source="DIR:EXT:hive_ovr_sys_language/Configuration/TsConfig/Page/Production" extensions="txt">

